{
	"output_file": "SnifferConfig.json",

	"sniffer_ip": {
		"type": "textbox",
		"value": "127.0.0.1",
		"label": "RockSniffer IP",
		"tooltip": "Enter the RockSniffer configured addon service ip address",
		"group": "RockSniffer"
	},
	"sniffer_port": {
		"type": "numberbox",
		"value": "9938",
		"label": "RockSniffer Port",
		"tooltip": "Enter the RockSniffer configured addon service port",
		"group": "RockSniffer"
	},
	"sniffer_pollrate": {
		"type": "numberbox",
		"value": "1",
		"label": "Pollrate (seconds)",
		"tooltip": "How often to poll the addon service (in seconds)",
		"group": "RockSniffer"
	},

	"gg_start_command": {
		"type": "textbox",
		"value": "!startgame",
		"label": "Command to start game",
		"tooltip": "Command to start game",
		"group": "Guessing Game Commands"
	},
	"gg_guess_command": {
		"type": "textbox",
		"value": "!guess",
		"label": "Command to guess",
		"tooltip": "Command to guess",
		"group": "Guessing Game Commands"
	},
	"gg_guess_command_price": {
		"type": "numberbox",
		"value": 0,
		"label": "Cost to guess (points)",
		"tooltip": "How many points does it cost to guess",
		"group": "Guessing Game Commands"
	},
	"gg_end_command": {
		"type": "textbox",
		"value": "!endgame",
		"label": "Command to end game",
		"tooltip": "Command to end game",
		"group": "Guessing Game Commands"
	},
	"gg_cancel_command": {
		"type": "textbox",
		"value": "!cancelgame",
		"label": "Command to cancel game",
		"tooltip": "Command to cancel game",
		"group": "Guessing Game Commands"
	},

	"gg_autostart": {
		"type": "checkbox",
		"value": true,
		"label": "Start automatically",
		"tooltip": "Start the game automatically when RockSniffer reports a song starting",
		"group": "Guessing Game"
	},
	"gg_autoend": {
		"type": "checkbox",
		"value": true,
		"label": "End automatically",
		"tooltip": "End the game automatically when RockSniffer reports a song ending",
		"group": "Guessing Game"
	},
	"gg_autostart_songs": {
		"type": "numberbox",
		"value": 1,
		"label": "Autostart every x songs",
		"tooltip": "Automatically start the guessing game every x songs\n1 = Every song",
		"group": "Guessing Game"
	},
	"gg_closedelay": {
		"type": "numberbox",
		"value": 60,
		"label": "Close delay (seconds)",
		"tooltip": "How long to wait before closing for new guesses (in seconds)",
		"group": "Guessing Game"
	},
	"gg_minimum_players": {
		"type": "numberbox",
		"value": 0,
		"label": "Minimum number of players",
		"tooltip": "Minimum number of players needed to play the guessing game",
		"group": "Guessing Game"
	},
	"gg_videosync_delay": {
		"type": "numberbox",
		"value": 7,
		"label": "Results videosync delay",
		"tooltip": "How long the game result announcement is delayed",
		"group": "Guessing Game"
	},

	"gg_reward": {
		"type": "numberbox",
		"value": 50,
		"label": "Reward (points)",
		"tooltip": "How many points the winner gets",
		"group": "Rewards"
	},
	"gg_jackpot": {
		"type": "checkbox",
		"value": true,
		"label": "Enable jackpot",
		"tooltip": "If someone guesses very close to the result, they will win a jackpot",
		"group": "Rewards"
	},
	"gg_jackpot_threshold": {
		"type": "slider",
		"value": 0.01,
		"min": 0,
		"max": 2,
		"ticks": 0.01,
		"label": "Jackpot threshold",
		"tooltip": "Maximum distance from the result for jackpot",
		"group": "Rewards"
	},
	"gg_jackpot_reward": {
		"type": "numberbox",
		"value": 500,
		"label": "Jackpot Reward (points)",
		"tooltip": "How many points the jackpot winner gets",
		"group": "Rewards"
	},

	"gg_write_winners_file": {
		"type": "checkbox",
		"value": false,
		"label": "Write winner(s) to file",
		"tooltip": "Create a txt file with the name of the winner(s)",
		"group": "Output"
	}
}
